package myfirstproject.rules
import org.drools.devguide.eshop.model.Customer;
import org.drools.devguide.eshop.model.Order;
import org.drools.devguide.eshop.model.Coupon;

rule "Create Coupons for Silver Customer"
    when
        $o: Order($customer: customer)
        $c: Customer(this == $customer && category == Customer.Category.SILVER)
    then
        insert(new Coupon($c, $o, Coupon.CouponType.POINTS));

end



