package myfirstproject.rules
import org.drools.devguide.eshop.model.Item;
import org.drools.devguide.eshop.model.Item.Category;
rule "Classify Item - High Range"
 when
    $i: Item(cost >= 500)
 then
    $i.setCategory(Category.HIGH_RANGE);
end