package myfirstproject.rules
import org.drools.devguide.eshop.model.Item;
import org.drools.devguide.eshop.model.Item.Category;
rule "Classify Item - Special Mid Range"
 when
    $i: Item(cost >= 300 && cost <500)
 then
    $i.setCategory(Category.SPECIAL_MIDHIGH_RANGE);
end